%YAML 1.1
%TAG !u! tag:unity3d.com,2011:
--- !u!1045 &1
EditorBuildSettings:
  m_ObjectHideFlags: 0
  serializedVersion: 2
  m_Scenes:
  - enabled: 1
    path: Assets/SHOP TEST SCENE.unity
  - enabled: 1
    path: Assets/SHOPS/SHOP - PLAYER.unity
  - enabled: 1
    path: Assets/DIORAMAS/HOME.unity
  - enabled: 1
    path: Assets/SHOPS/SHOP - TEST.unity
  - enabled: 1
    path: Assets/SHOPS/SHOP - GOODWILL.unity
  - enabled: 1
    path: Assets/SHOPS/SHOP - Desert Yard Sale.unity
  - enabled: 1
    path: Assets/SHOPS/SHOP - Jewelery.unity
  - enabled: 1
    path: Assets/DIORAMAS/INTERSTITIAL SCENEN.unity
  - enabled: 1
    path: Assets/DIORAMAS/ARCOSANTI.unity
  - enabled: 1
    path: Assets/DIORAMAS/MalakoffDiggins.unity
  - enabled: 1
    path: Assets/DIORAMAS/DINOTRACKS.unity
  - enabled: 1
    path: Assets/DIORAMAS/GRAND CANYON.unity
  - enabled: 1
    path: Assets/DIORAMAS/PAHRUMP POLAR PARLOR.unity
  - enabled: 1
    path: Assets/DIORAMAS/ELY GHOST TRAIN.unity
  - enabled: 1
    path: Assets/DIORAMAS/BRYCECANYONTRADING.unity
